…
``` r
d_filter %>% count(adj_cond, target, syntax)
```

    ## # A tibble: 38 x 4
    ##    adj_cond  target     syntax     n
    ##    <chr>     <chr>      <chr>  <int>
    ##  1 congruent bonsai     pred       6
    ##  2 congruent bonsai     subj       4
    ##  3 congruent chihuahua  pred      11
    ##  4 congruent chihuahua  subj       4
    ##  5 congruent dandelion  pred       5
    ##  6 congruent dandelion  subj       3
    ##  7 congruent doberman   pred       3
    ##  8 congruent eagle      pred       9
    ##  9 congruent eagle      subj      10
    ## 10 congruent Great Dane pred       4
    ## # ... with 28 more rows
…
