…
    ## [1] 41

``` r
d_main <- d_clean %>% filter(!is.na(trial_type)) 

d_main %>% count(trial_type, item_noun, syntax)
```

    ## # A tibble: 40 x 4
    ##    trial_type item_noun          syntax     n
    ##    <chr>      <chr>              <chr>  <int>
    ##  1 critical   birds_rescue       pred      17
    ##  2 critical   birds_rescue       subj      18
    ##  3 critical   buildings_landmark pred      16
    ##  4 critical   buildings_landmark subj      18
    ##  5 critical   dogs1_rescue       pred      19
    ##  6 critical   dogs1_rescue       subj      13
    ##  7 critical   dogs1_service      pred      10
    ##  8 critical   dogs1_service      subj      21
    ##  9 critical   dogs2_present      pred      16
    ## 10 critical   dogs2_present      subj      13
    ## # … with 30 more rows
…
