…
    ## # A tibble: 5 x 4
    ##   trial_type syntax target_size     n
    ##   <chr>      <chr>  <chr>       <int>
    ## 1 critical   pred   big            36
    ## 2 critical   pred   small          36
    ## 3 critical   subj   big            36
    ## 4 critical   subj   small          36
    ## 5 <NA>       <NA>   <NA>          207

``` r
d_modRef_filter %>% count(syntax, item)
```

    ## # A tibble: 22 x 3
    ##    syntax item          n
    ##    <chr>  <chr>     <int>
    ##  1 pred   birds         3
    ##  2 pred   buildings     2
    ##  3 pred   dogs1        17
    ##  4 pred   dogs2        23
    ##  5 pred   fish          9
    ##  6 pred   flowers      12
    ##  7 pred   trees         6
    ##  8 subj   birds         6
    ##  9 subj   buildings     7
    ## 10 subj   dogs1        18
    ## # … with 12 more rows
…
