…
    ## [1] 46

``` r
d_main <- d_clean %>% filter(!is.na(trial_type)) 

d_main %>% count(trial_type, item_noun, syntax)
```

    ## # A tibble: 40 x 4
    ##    trial_type item_noun          syntax     n
    ##    <chr>      <chr>              <chr>  <int>
    ##  1 critical   birds_rescue       pred      15
    ##  2 critical   birds_rescue       subj      24
    ##  3 critical   buildings_landmark pred      19
    ##  4 critical   buildings_landmark subj      21
    ##  5 critical   dogs1_rescue       pred      22
    ##  6 critical   dogs1_rescue       subj      14
    ##  7 critical   dogs1_service      pred      19
    ##  8 critical   dogs1_service      subj      17
    ##  9 critical   dogs2_present      pred      22
    ## 10 critical   dogs2_present      subj      16
    ## # … with 30 more rows
…
