…
    ## See spec(...) for full column specifications.

``` r
# exclusions

# check comments for any issues
d %>% distinct(comments) 
```

    ## # A tibble: 21 x 1
    ##    comments                                                                     
    ##    <chr>                                                                        
    ##  1 <NA>                                                                         
    ##  2 Na                                                                           
    ##  3 none                                                                         
    ##  4 That was surprisingly stressful                                              
    ##  5 n/a                                                                          
    ##  6 It was interesting to see the difference in which a sentence would mean to m…
    ##  7 N/A                                                                          
    ##  8 For the fair compensation question, no units are specified. That confused me…
    ##  9 nonw                                                                         
    ## 10 None                                                                         
    ## # … with 11 more rows

``` r
# check if bugs were reported
d %>% distinct(problems) 
```

    ## # A tibble: 24 x 1
    ##    problems                                 
    ##    <chr>                                    
    ##  1 No                                       
    ##  2 there were no glitches                   
    ##  3 <NA>                                     
    ##  4 no                                       
    ##  5 Na                                       
    ##  6 none                                     
    ##  7 Slow loading. Might have been my computer
    ##  8 Nope                                     
    ##  9 Nope! :)                                 
    ## 10 No it went smooth!                       
    ## # … with 14 more rows
…
# number of subjects left after exclusions based on the paraphrase warmup trial
d_clean %>% distinct(submission_id) %>% count() %>% pull()
```

    ## [1] 150

``` r
# get main trials
d_main <- d_clean %>% filter(!is.na(trial_type)) 
# check trial counts
d_main %>% count(trial_type, item_noun, syntax)
```

    ## # A tibble: 40 x 4
    ##    trial_type item_noun          syntax     n
    ##    <chr>      <chr>              <chr>  <int>
    ##  1 critical   birds_rescue       pred      57
    ##  2 critical   birds_rescue       subj      67
    ##  3 critical   buildings_landmark pred      64
    ##  4 critical   buildings_landmark subj      54
    ##  5 critical   dogs1_rescue       pred      63
    ##  6 critical   dogs1_rescue       subj      58
    ##  7 critical   dogs1_service      pred      64
    ##  8 critical   dogs1_service      subj      65
    ##  9 critical   dogs2_prize        pred      62
    ## 10 critical   dogs2_prize        subj      53
    ## # … with 30 more rows
…
d_main_option_counts  
```

    ## # A tibble: 291 x 3
    ## # Groups:   submission_id, optionChosen [291]
    ##    submission_id optionChosen     n
    ##            <dbl> <chr>        <int>
    ##  1          2875 left            10
    ##  2          2875 right            6
    ##  3          2876 left            10
    ##  4          2876 right            6
    ##  5          2877 left            11
    ##  6          2877 right            5
    ##  7          2878 left             7
    ##  8          2878 right            9
    ##  9          2879 left             3
    ## 10          2879 right           13
    ## # … with 281 more rows
…
