…
    ## See spec(...) for full column specifications.

    ## # A tibble: 6 x 1
    ##   `d$languages` 
    ##   <chr>         
    ## 1 english       
    ## 2 English       
    ## 3 <NA>          
    ## 4 English, Dutch
    ## 5 englsih       
    ## 6 Englilsh

    ## # A tibble: 52 x 1
    ##    `d_main$response`
    ##    <chr>            
    ##  1 birds            
    ##  2 fish             
    ##  3 dogs             
    ##  4 trees            
    ##  5 flowers          
    ##  6 plant            
    ##  7 bonsais          
    ##  8 swordfishes      
    ##  9 flower           
    ## 10 hummingbird      
    ## # ... with 42 more rows
…
